<?xml version="1.0" encoding="utf-8"?>
<!-- Generator: Adobe Illustrator 16.0.0, SVG Export Plug-In . SVG Version: 6.00 Build 0)  -->
<!DOCTYPE svg PUBLIC "-//W3C//DTD SVG 1.1//EN" "http://www.w3.org/Graphics/SVG/1.1/DTD/svg11.dtd">
<svg version="1.1" id="Layer_1" xmlns="http://www.w3.org/2000/svg" xmlns:xlink="http://www.w3.org/1999/xlink" x="0px" y="0px"
	 width="651.969px" height="1037.246px" viewBox="0 0 651.969 1037.246" enable-background="new 0 0 651.969 1037.246"
	 xml:space="preserve">
<rect x="-45.409" y="-21.64" fill="#000000" width="725.964" height="1082.946"/>
<g>
	<g>
		<path fill="none" stroke="#ffffff" stroke-miterlimit="10" d="M-19.909,1078.774c-0.203-106.45-3.231-212.893-2.997-319.342
			c0.171-77.52,9.573-154.652,10.463-232.146c0.691-60.214,5.165-120.123,7.102-180.282c3.854-119.707-19.794-238.109-22.067-357.61
			C6.269-18.177,40.48-23.853,74.793-27.563c25.691-2.777,53.579-6.571,79.264-2.386c25.3,4.123,48.707,16.687,73.155,23.898
			c76.626,22.604,139.156-36.854,212.479-47.006c38.394-5.316,80.755,7.167,117.79,15.792
			c33.852,7.884,67.604,19.652,101.937,25.148c-0.413,187.26-2.027,374.827,5.946,561.968
			c3.424,80.349,31.209,157.616,32.903,238.238c1.793,85.31-16.805,169.469-17.79,254.671c-31.685,3.301-64.044,17.95-94.914,25.64
			c-43.801,10.91-87.117,19.526-132.091,12.019c-54.606-9.115-112.435-35.586-168.19-30.362
			c-24.485,2.294-47.829,10.743-72.148,13.861c-27.792,3.563-56.609,2.032-84.607,3.529
			C78.986,1070.096,29.47,1073.969-19.909,1078.774z"/>
		<path fill="none" stroke="#ffffff" stroke-miterlimit="10" d="M677.771,1043.029c-1.121-85.485,15.043-170.305,11.79-255.834
			c-3.046-80.078-27.833-157.4-31.873-237.281c-3.734-73.821-5.804-148.431-6.712-222.353c-0.566-46.13,2.848-92.18,3.302-138.32
			c0.662-67.302-0.789-134.667,1.517-201.943"/>
		<path fill="none" stroke="#ffffff" stroke-miterlimit="10" d="M672.712,1044.207c-2.828-86.472,11.313-172.571,7-259.06
			c-3.946-79.135-25.153-156.226-29.326-235.252c-3.923-74.286-7.243-149.508-7.652-223.902
			c-0.257-46.684,5.416-93.054,5.961-139.783c0.777-66.698-2.357-133.569,1.326-200.204"/>
		<path fill="none" stroke="#ffffff" stroke-miterlimit="10" d="M665.378,1046.201c-4.382-90.699,8.466-181.219,2.604-271.943
			c-4.953-76.662-21.889-152.253-25.069-229.006c-3.086-74.472-8.699-149.491-8.435-224.029c0.168-47.184,7.665-93.732,7.926-141.06
			c0.36-65.303-4.653-130.877-0.271-196.1"/>
		<path fill="none" stroke="#ffffff" stroke-miterlimit="10" d="M656.084,1048.863c-5.496-92.808,5.622-185.64-0.316-278.505
			c-4.808-75.18-17.143-149.93-19.919-225.216c-2.782-75.437-10.254-151.254-9.522-226.748c0.463-47.825,9.439-94.595,9.187-142.671
			c-0.34-64.63-7.627-129.57-3.063-194.14"/>
		<path fill="none" stroke="#ffffff" stroke-miterlimit="10" d="M645.288,1052.001c-6.19-94.405,3.51-189.029-2.102-283.524
			c-4.335-73.001-11.577-146.02-14.022-219.11c-2.525-75.498-11.12-151.107-10.864-226.647
			c0.175-51.771,11.079-101.957,9.885-154.036c-1.449-63.221-11.034-126.729-6.764-189.962"/>
		<path fill="none" stroke="#ffffff" stroke-miterlimit="10" d="M632.858,1055.594c-6.649-97.158,1.799-194.73-3.302-292.02
			c-3.74-71.343-5.909-143.024-7.362-214.451c-1.562-76.751-12.553-153.207-12.023-229.978
			c0.362-52.512,12.39-102.861,10.109-155.806c-2.693-62.535-15.004-125.2-11.394-187.867"/>
		<path fill="none" stroke="#ffffff" stroke-miterlimit="10" d="M619.229,1059.453c-6.786-99.229,0.981-198.99-3.551-298.368
			c-3.284-72.012,0.063-144.405-0.481-216.477c-0.584-77.496-14.317-154.397-13.148-231.938
			c0.802-53.147,13.527-103.31,9.777-157.079c-4.263-61.12-19.244-122.174-16.547-183.605"/>
		<path fill="none" stroke="#ffffff" stroke-miterlimit="10" d="M604.645,1063.447c-6.673-102.178,0.228-205.05-3.37-307.393
			c-2.479-70.541,6.556-141.144,6.954-211.683c0.445-78.818-15.866-156.851-14.395-235.742c0.42-22.482,4.005-43.186,7.841-65.241
			c5.367-30.862,4.438-62.549,1.445-93.603c-5.827-60.451-23.846-120.456-22.296-181.426"/>
		<path fill="none" stroke="#ffffff" stroke-miterlimit="10" d="M589.635,1067.371c-6.34-104.192,0.55-209.039-2.469-313.383
			c-1.99-68.813,11.946-137.127,13.966-205.831c2.419-82.304-17.734-163.785-15.408-246.219c0.646-22.918,5.287-43.904,8.898-66.406
			c4.967-30.948,3.376-62.616-0.596-93.572c-7.58-59.08-28.341-117.334-27.993-177.203"/>
		<path fill="none" stroke="#ffffff" stroke-miterlimit="10" d="M573.917,1071.235c-3.157-57.415-1.476-114.966-0.493-172.422
			c0.896-52.464-1.374-104.8-1.213-157.181c0.204-66.464,19.625-131.438,21.799-197.777c2.723-83.09-19.907-165.326-16.651-248.658
			c0.911-23.316,6.563-44.733,9.896-67.664c4.506-31.008,2.192-62.605-2.812-93.394c-9.382-57.721-32.911-114.16-33.819-172.989"/>
		<path fill="none" stroke="#ffffff" stroke-miterlimit="10" d="M558.003,1074.83c-2.791-58.78-0.903-117.667,0.287-176.468
			c1.083-53.496-1.271-107.078-0.327-160.482c1.162-65.725,25.615-128.76,28.558-194.302
			c3.783-84.264-21.508-167.813-17.785-252.422c1.041-23.67,7.229-45.404,10.558-68.687c4.473-31.287,1.643-63.11-4.328-93.99
			c-11.041-57.097-37.695-112.266-39.881-170.78"/>
		<path fill="none" stroke="#ffffff" stroke-miterlimit="10" d="M542.418,1077.974c-2.344-59.258-0.274-118.599,1.171-177.855
			c1.322-54.182-0.364-108.443,0.787-162.552c1.383-64.956,29.403-125.901,34.2-190.408c6.222-83.661-21.069-167.791-18.803-251.874
			c0.607-22.533,4.77-42.973,9.326-64.91c6.42-30.907,4.952-62.742-0.748-93.627C556.979,75.132,523.505,17.391,519.92-45.44"/>
		<path fill="none" stroke="#ffffff" stroke-miterlimit="10" d="M526.861,1080.638c-1.842-60.105,0.491-120.265,2.233-180.348
			c1.59-54.809,0.197-109.804,1.919-164.538c2.045-64.988,34.081-124.43,39.419-188.866c3.252-39.255-4.735-80.179-9.522-119.049
			c-5.541-44.992-11.69-90.557-10.278-135.994c0.71-22.852,5.369-43.379,10.06-65.594c6.604-31.276,4.93-63.46-1.576-94.592
			c-12.777-61.146-49.586-117.36-54.279-179.939"/>
		<path fill="none" stroke="#ffffff" stroke-miterlimit="10" d="M511.865,1082.64c-2.476-114.553,3.155-230.301,6.548-344.824
			c2.006-67.709,39.645-127.9,43.842-195.068c5.343-85.492-24.762-170.661-20.97-256.692c1.024-23.252,6.9-43.957,11.422-66.594
			c6.263-31.357,4.078-63.508-3.303-94.459c-14.271-59.843-53.627-114.039-59.067-175.671"/>
		<path fill="none" stroke="#ffffff" stroke-miterlimit="10" d="M497.915,1083.824c-1.443-114.763,4.927-230.414,8.89-345.112
			c2.367-68.507,42.62-128.279,46.636-196.225c5.104-86.364-26.102-172.043-21.759-258.959c1.176-23.522,7.584-44.253,12.325-67.107
			c6.573-31.685,4.376-64.163-3.644-95.355C525.098,61.69,482.827,8.926,476.891-52.476"/>
		<path fill="none" stroke="#ffffff" stroke-miterlimit="10" d="M484.773,1084.101c-0.36-114.143,7.092-228.743,11.254-342.805
			c2.543-69.707,44.501-129.889,47.938-199.053c4.331-87.142-27.421-173.038-22.435-260.695
			c1.353-23.773,8.326-44.458,13.363-67.494c6.996-31.993,4.954-64.824-3.598-96.292C515.296,58.886,470.271,7.476,464.266-53.669"
			/>
		<path fill="none" stroke="#ffffff" stroke-miterlimit="10" d="M472.944,1083.311c0.766-112.54,9.568-225.076,13.525-337.54
			c2.509-71.313,45.021-132.93,47.452-203.752c3.012-87.695-28.676-173.624-22.959-261.762c1.557-23.997,9.119-44.552,14.535-67.723
			c7.543-32.272,5.861-65.465-3.081-97.257c-16.41-58.34-63.865-108.543-69.479-169.383"/>
		<path fill="none" stroke="#ffffff" stroke-miterlimit="10" d="M462.155,1081.803c0.168-109.302,7.257-218.988,11.862-328.187
			c3.11-73.759,48.393-138.427,49.195-212.106c0.953-87.493-28.75-173.032-22.384-261.243c1.703-23.594,8.84-44.253,13.937-67.128
			c7.104-31.883,4.898-64.595-4.008-95.867C494.1,58.781,447.488,7.773,442.075-53.387"/>
		<path fill="none" stroke="#ffffff" stroke-miterlimit="10" d="M451.315,1080.055c-0.349-106.832,4.624-214.835,10.417-321.51
			c4.012-73.874,48.804-139.44,49.697-213.555c0.496-41.177-10.119-83.672-15.048-124.501c-5.45-45.149-10.166-91.217-6.878-136.72
			c1.659-22.963,7.647-43.444,12.747-65.712c7.262-31.71,4.953-64.3-3.778-95.451c-16.675-59.488-63.074-111.689-68.461-173.833"/>
		<path fill="none" stroke="#ffffff" stroke-miterlimit="10" d="M440.598,1078.118c-0.668-103.923,3.226-209.348,9.282-313.099
			c4.437-76.009,50.341-144.535,49.188-221.187c-0.622-41.347-12.273-83.655-16.847-124.838
			c-4.914-44.255-8.254-89.33-4.601-133.817c1.838-22.383,7.467-42.809,12.159-64.622c6.712-31.2,3.785-63.175-4.925-93.657
			c-17.011-59.529-62.457-112.401-67.761-174.76"/>
		<path fill="none" stroke="#ffffff" stroke-miterlimit="10" d="M430.171,1076.057c-1.394-101.199,2.297-204.375,8.456-305.401
			c4.749-77.896,51.146-149.29,47.67-228.159c-1.828-41.485-14.432-83.268-18.629-124.817c-4.37-43.262-6.348-87.229-2.314-130.598
			c2.024-21.769,7.327-42.055,11.601-63.377c6.147-30.671,2.613-62.022-6.082-91.821C453.506,72.368,408.973,18.903,403.733-43.61"
			/>
		<path fill="none" stroke="#ffffff" stroke-miterlimit="10" d="M419.655,1073.822c-1.415-99.372,1.019-201.292,7.956-300.447
			c5.594-79.95,53.672-155.628,44.823-237.046c-4.612-42.438-17.2-83.626-20.689-126.594c-3.445-42.418-3.63-85.429,1.488-127.724
			c2.721-22.484,9.647-44.305,11.965-66.742c3.186-30.846-3.199-61.653-13.23-90.703c-18.733-54.254-57.469-104.972-62.341-163.125"
			/>
		<path fill="none" stroke="#ffffff" stroke-miterlimit="10" d="M409.229,1071.478c-0.912-95.285,2.611-191.462,7.43-286.631
			c4.184-82.62,51.213-161.347,42.111-245.093c-4.635-42.644-19.189-83.435-22.416-126.803
			c-3.111-41.819-1.957-84.046,3.339-125.644c2.765-21.717,8.901-43.032,11.167-64.736c3.192-30.579-3.404-61.178-13.296-89.969
			C418.661,77.579,380.119,25.91,375.172-33.015"/>
		<path fill="none" stroke="#ffffff" stroke-miterlimit="10" d="M398.873,1069.054c-1.205-93.171,2.437-187.326,7.229-280.381
			c4.314-83.767,50.449-165.249,38.302-250.162c-6.119-42.775-21.45-82.403-24.105-126.298
			c-2.463-40.718,0.261-81.591,5.939-121.937c2.957-21.008,8.633-41.98,10.436-63.081c2.567-30.051-4.512-60.045-14.334-88.234
			c-19.171-55.019-56.873-107.156-61.8-166.173"/>
		<path fill="none" stroke="#ffffff" stroke-miterlimit="10" d="M388.756,1066.614c-0.741-92.025,1.911-185.074,7.221-276.959
			c4.916-85.074,51.389-170.986,33.169-257.093c-8.421-39.795-22.364-75.564-24.636-116.927
			c-2.207-40.191,1.951-80.297,8.051-119.979c3.123-20.321,8.208-40.792,9.949-61.269c2.526-29.707-4.807-59.42-14.49-87.265
			C388.629,91.364,351.151,38.284,346.15-21.495"/>
		<path fill="none" stroke="#ffffff" stroke-miterlimit="10" d="M378.507,1064.099c-0.561-90.962,1.599-183.058,7.328-273.857
			c5.285-83.746,47.39-168.439,29.336-253.139c-8.597-40.334-24.79-75.779-26.917-117.908
			c-2.008-39.765,3.677-79.137,10.369-118.215c8.869-51.787,12.693-94.716-5.047-145.746
			c-19.643-56.504-56.852-110.565-61.91-171.124"/>
		<path fill="none" stroke="#ffffff" stroke-miterlimit="10" d="M368.294,1061.579c-0.397-89.36,1.851-179.648,7.438-268.851
			c5.271-84.163,45.6-170.936,24.473-255.67c-10.107-40.539-26.997-75.244-28.443-118.091c-1.316-39.004,6.136-77.168,13.47-115.263
			c9.764-50.716,11.054-92.924-6.5-142.665c-19.943-56.513-56.238-111.107-61.22-171.783"/>
		<path fill="none" stroke="#ffffff" stroke-miterlimit="10" d="M358.276,1059.126c-0.209-88.637,1.745-178.227,7.673-266.688
			c5.701-85.087,44.87-174.982,18.04-259.924c-12.942-40.975-28.735-75.554-28.341-119.688
			c0.346-38.688,10.371-75.861,18.172-113.469c9.645-46.495,7.375-86.031-8.578-131.233
			c-20.225-57.303-56.188-112.969-61.158-174.484"/>
		<path fill="none" stroke="#ffffff" stroke-miterlimit="10" d="M348.093,1056.675c-0.035-84.967,2.829-170.213,7.468-255.056
			c4.687-85.719,42.274-177.412,15.006-262.523c-13.429-41.914-31.768-76.569-31.044-122.028
			c0.619-38.927,12.538-75.721,21.23-113.283c10.586-45.749,7.032-84.744-8.671-129.218c-20.528-58.14-56.093-114.973-61-177.385"/>
		<path fill="none" stroke="#ffffff" stroke-miterlimit="10" d="M337.907,1054.298c0.09-83.646,2.852-167.494,7.493-251.013
			c4.745-85.386,40.365-177.809,10.374-261.962c-15.053-42.236-33.889-77.183-32.031-123.588
			c1.558-38.923,15.55-75.016,25.001-112.353c28.202-111.408-61.821-198.613-69.833-305.83"/>
		<path fill="none" stroke="#ffffff" stroke-miterlimit="10" d="M327.878,1052.06c0.203-82.428,2.761-164.999,7.428-247.298
			c4.811-84.824,38.631-177.332,6.153-260.271c-16.694-42.634-35.887-78.363-32.792-125.791
			c2.562-39.254,18.675-74.925,28.955-112.378c29.837-108.7-62.294-200.2-69.695-305.802"/>
		<path fill="none" stroke="#ffffff" stroke-miterlimit="10" d="M317,1050.157c0.239-81.638,3.333-163.436,8.301-244.923
			c5.138-84.268,36.687-175.33,5.402-257.851c-16.094-42.452-34.099-78.794-32.058-125.6c1.722-39.49,16.055-76.101,25.639-113.995
			c27.228-107.652-56.367-202.802-66.797-307.668"/>
		<path fill="none" stroke="#ffffff" stroke-miterlimit="10" d="M306.15,1049.287c0.326-81.743,4.18-163.634,9.466-245.201
			c5.392-83.194,34.246-172.426,4.478-254.007c-15.266-41.836-32.245-78.408-31.89-124.082
			c0.307-39.323,11.915-76.654,20.28-114.703C332.166,203.578,259.8,103.992,247.125-1.251"/>
		<path fill="none" stroke="#ffffff" stroke-miterlimit="10" d="M295.625,1049.31c0.451-82.578,5.13-165.27,10.729-247.646
			c5.551-81.679,31.469-168.929,2.989-249.02c-14.56-40.944-30.868-77.482-32.399-121.791
			c-1.343-38.852,7.271-76.512,14.188-114.465c19.833-108.827-40.367-213.027-54.117-319.766"/>
		<path fill="none" stroke="#ffffff" stroke-miterlimit="10" d="M285.063,1050.079c0.638-84.037,6.179-168.124,12.085-251.936
			c5.623-79.796,28.341-164.844,1.011-243c-13.931-39.839-29.86-76.109-33.473-118.812c-3.225-38.125,2.071-75.777,7.312-113.453
			c15.444-111.048-31.201-219.666-45.18-329.045"/>
		<path fill="none" stroke="#ffffff" stroke-miterlimit="10" d="M274.659,1051.445c0.821-88.254,7.223-176.646,13.956-264.624
			c5.933-77.516,24.012-158.592-3.538-234.055c-13.864-37.976-28.443-73.787-33.731-114.263
			c-4.81-36.817-2.789-73.726,0.634-110.559c10.517-113.167-21.829-225.416-35.257-337.359"/>
		<path fill="none" stroke="#ffffff" stroke-miterlimit="10" d="M264.417,1053.254c1.03-90.549,8.505-181.078,15.372-271.337
			c5.719-75.178,20.451-153.865-6.068-226.835c-26.711-73.497-46.26-139.956-42.822-219.085
			c5.082-116.975-11.538-232.738-24.157-348.945"/>
		<path fill="none" stroke="#ffffff" stroke-miterlimit="10" d="M254.519,1055.31c1.188-92.232,9.706-184.269,16.555-276.204
			c5.35-71.809,17.211-147.737-6.911-217.506c-24.329-70.365-52.417-134.843-54.212-210.69
			c-1.164-49.148,2.018-98.253,0.443-147.514c-2.345-73.388-6.309-146.836-13.341-219.932"/>
		<path fill="none" stroke="#ffffff" stroke-miterlimit="10" d="M244.627,1057.534c1.347-94.758,10.886-189.18,17.838-283.629
			c5.126-69.644,13.664-143.052-9.597-210.49c-23.505-68.146-57.771-131.311-63.9-204.482c-4.151-49.557,2-100.578,2.856-150.217
			c1.314-76.213,1.926-152.839-4.494-228.851"/>
		<path fill="none" stroke="#ffffff" stroke-miterlimit="10" d="M234.921,1059.737c1.441-96.404,11.758-192.377,18.819-288.459
			c5.139-69.933,10.736-143.246-13.458-210.495c-23.607-65.617-62.734-126.351-72.183-196.577
			c-6.733-50.044,2.575-102.884,5.675-152.916c4.831-77.975,9.854-156.761,3.986-234.8"/>
		<path fill="none" stroke="#ffffff" stroke-miterlimit="10" d="M225.574,1061.734c1.46-98.544,12.609-196.576,19.789-294.783
			c4.988-68.231,7.523-139.312-15.664-204.785c-23.079-65.169-68.096-122.668-81.139-191.407
			c-9.549-50.329,2.953-104.896,8.071-155.099c8.169-80.124,17.467-161.518,11.882-242.106"/>
		<path fill="none" stroke="#ffffff" stroke-miterlimit="10" d="M216.262,1063.438c1.429-100.341,13.271-200.113,20.576-300.103
			c4.888-66.91,4.519-135.913-17.536-200.063c-22.527-65.521-73.092-119.303-89.436-187.078
			c-12.168-50.462,3.323-106.606,10.259-156.803c11.305-81.813,24.799-165.483,19.152-248.267"/>
		<path fill="none" stroke="#ffffff" stroke-miterlimit="10" d="M207.162,1064.66c1.277-100.82,13.352-201.121,20.931-301.565
			c4.953-65.648,2.244-131.845-17.482-195.089c-21.529-69.021-79.688-120.445-98.474-190.155
			c-13.608-50.5,4.68-108.316,13.157-158.256C139.216,137.572,156.374,52.96,150.23-30.57"/>
		<path fill="none" stroke="#ffffff" stroke-miterlimit="10" d="M198.431,1065.241c1.023-101.42,13.436-202.371,21.185-303.396
			c5.026-65.519-0.008-130.167-18.322-193.434c-20.473-70.725-83.149-118.838-104.152-188.745
			c-15.137-50.385,4.95-108.884,14.698-158.48c16.179-82.311,36.935-168.18,29.69-252.542"/>
		<path fill="none" stroke="#ffffff" stroke-miterlimit="10" d="M189.576,1065.305c1.163-101.477,13.521-202.448,21.147-303.542
			c4.937-65.437-0.726-130.118-18.402-193.395c-19.89-71.2-82.941-118.976-104.551-188.876
			c-15.601-50.466,4.651-108.854,14.566-158.569c16.39-82.181,37.499-167.979,30.449-252.277"/>
		<path fill="none" stroke="#ffffff" stroke-miterlimit="10" d="M180.281,1065.439c1.396-101.526,13.531-202.502,20.904-303.672
			c4.762-65.335-0.825-130.524-18.15-193.778c-19.449-71.003-81.207-119.462-102.728-189.093
			C64.667,328.296,84.533,270.183,94.199,220.2c15.862-82.021,36.12-167.34,29.77-251.353"/>
		<path fill="none" stroke="#ffffff" stroke-miterlimit="10" d="M170.747,1065.667c1.563-101.597,13.39-202.627,20.497-303.895
			c4.586-65.349-0.782-131.039-17.69-194.412c-18.87-70.726-79.091-119.938-100.284-189.259
			c-15.498-50.693,3.834-108.493,13.19-158.684c15.248-81.79,34.591-166.583,28.803-250.221"/>
		<path fill="none" stroke="#ffffff" stroke-miterlimit="10" d="M160.705,1065.988c1.662-101.688,13.077-202.823,19.917-304.209
			c4.417-65.471-0.609-131.676-17.018-195.303c-18.147-70.37-76.558-120.413-97.192-189.38
			c-15.185-50.753,3.46-108.186,12.44-158.536c14.533-81.483,32.883-165.699,27.542-248.869"/>
		<path fill="none" stroke="#ffffff" stroke-miterlimit="10" d="M150.379,1066.393c1.693-101.802,12.634-203.083,19.192-304.609
			c4.244-65.694-0.32-132.407-16.164-196.409c-17.316-69.948-73.666-120.88-93.547-189.461
			c-14.721-50.781,3.114-107.808,11.658-158.271c13.734-81.114,31.028-164.703,26.026-247.329"/>
		<path fill="none" stroke="#ffffff" stroke-miterlimit="10" d="M139.835,1066.872c1.67-101.937,12.066-203.397,18.336-305.084
			c4.07-66.012,0.071-133.229-15.144-197.711c-16.392-69.473-70.458-121.33-89.413-189.501
			c-14.117-50.775,2.787-107.372,10.847-157.899C77.332,135.993,93.511,53.067,88.75-28.951"/>
		<path fill="none" stroke="#ffffff" stroke-miterlimit="10" d="M129.322,1067.405c1.608-102.086,11.399-203.75,17.381-305.611
			c3.9-66.408,0.533-134.113-14-199.162c-15.407-68.961-67.023-121.756-84.925-189.504c-13.409-50.746,2.491-106.892,10.025-157.445
			C69.756,135.472,84.794,53.238,80.188-28.13"/>
		<path fill="none" stroke="#ffffff" stroke-miterlimit="10" d="M118.532,1068.003c1.496-102.256,10.63-204.149,16.311-306.204
			c3.723-66.887,1.075-135.085-12.712-200.788c-14.354-68.401-63.272-122.174-79.984-189.473
			c-12.588-50.691,2.204-106.357,9.166-156.902c10.974-79.68,24.812-161.184,20.281-241.843"/>
		<path fill="none" stroke="#ffffff" stroke-miterlimit="10" d="M107.71,1068.649c1.37-103.222,10.077-206.101,15.293-309.148
			c3.437-67.893,1.607-137.54-12.246-204.294c-13.573-65.404-57.771-118.63-73.409-183.159
			c-12.264-50.605,1.082-105.383,7.446-155.972C54.851,136.139,67.691,54.544,63.141-26.211"/>
		<path fill="none" stroke="#ffffff" stroke-miterlimit="10" d="M97.11,1069.325c1.197-103.417,9.132-206.563,14.078-309.826
			c3.281-68.51,2.256-138.586-10.726-206.14C88,488.513,46.665,434.403,32.376,370.308c-11.258-50.5,0.919-104.831,6.647-155.329
			c9-79.339,20.582-160.158,15.99-240.15"/>
		<path fill="none" stroke="#ffffff" stroke-miterlimit="10" d="M86.417,1070.039C87.4,966.414,94.53,862.987,99.202,759.497
			c3.123-69.184,2.938-139.699-9.11-208.104c-11.321-64.275-49.609-119.263-62.47-182.917
			c-10.179-50.383,0.77-104.243,5.827-154.634c7.898-78.699,18.179-158.712,13.5-237.907"/>
		<path fill="none" stroke="#ffffff" stroke-miterlimit="10" d="M75.885,1070.78c0.78-103.845,7.055-207.559,11.451-311.286
			c2.961-69.89,3.636-140.853-7.438-210.13c-10.184-63.709-45.318-119.544-56.72-182.759c-9.065-50.258,0.638-103.634,5.004-153.907
			C34.958,134.659,43.929,55.464,39.13-22.926"/>
		<path fill="none" stroke="#ffffff" stroke-miterlimit="10" d="M65.752,1071.52c0.552-104.063,5.987-208.063,10.115-312.025
			c2.803-70.607,4.309-142.019-5.769-212.163c-9.076-63.168-41.028-119.794-50.983-182.586
			c-7.948-50.134,0.515-103.021,4.19-153.177c5.669-77.373,13.338-155.754,8.408-233.351"/>
		<path fill="none" stroke="#ffffff" stroke-miterlimit="10" d="M55.723,1072.279c0.318-104.291,4.886-208.583,8.744-312.789
			c2.641-71.342,4.991-143.228-4.053-214.241c-7.978-62.645-36.636-120.018-45.124-182.396
			c-6.806-50.011,0.401-102.388,3.366-152.428c4.542-76.688,10.882-154.241,5.813-231.038"/>
		<path fill="none" stroke="#ffffff" stroke-miterlimit="10" d="M46.042,1073.035c0.085-104.521,3.798-209.102,7.381-313.553
			c2.472-72.072,5.65-144.447-2.347-216.307c-6.917-62.157-32.25-120.213-39.297-182.198c-5.672-49.896,0.298-101.752,2.545-151.684
			c3.419-75.997,8.45-152.728,3.238-228.739"/>
		<path fill="none" stroke="#ffffff" stroke-miterlimit="10" d="M36.928,1073.767c-0.136-104.745,2.75-209.598,6.058-314.287
			c2.299-72.78,6.268-145.653-0.693-218.316C36.38,479.442,14.312,420.796,8.636,359.17c-4.585-49.791,0.196-101.137,1.743-150.97
			c2.339-75.324,6.073-151.252,0.752-226.516"/>
		<path fill="none" stroke="#ffffff" stroke-miterlimit="10" d="M28.125,1074.491c-0.354-104.97,1.718-210.09,4.748-315.016
			c2.122-73.476,6.865-146.872,0.943-220.307C28.871,477.841,10.09,418.681,5.754,357.388
			c-8.799-124.385,8.287-249.913-0.765-374.585"/>
		<path fill="none" stroke="#ffffff" stroke-miterlimit="10" d="M19.858,1075.189C19.329,970,20.595,864.63,23.35,759.473
			c1.942-74.137,7.417-148.067,2.513-222.22C21.829,476.261,6.267,416.682,3.189,355.684c-6.241-123.722,5.218-248-3.913-371.805"/>
		<path fill="none" stroke="#ffffff" stroke-miterlimit="10" d="M12.319,1075.837c-0.691-105.397-0.162-210.996,2.321-316.37
			c1.761-74.745,7.914-149.201,3.972-224.001c-3.2-60.722-15.7-120.618-17.631-181.368c-3.91-122.994,2.249-246.292-6.865-369.22"/>
		<path fill="none" stroke="#ffffff" stroke-miterlimit="10" d="M5.306,1076.452C4.481,970.854,4.308,865.044,6.515,759.46
			c1.575-75.315,8.366-150.295,5.355-225.688C9.454,473.267-0.072,413.144-0.946,352.603
			c-1.766-122.228-0.738-244.717-9.697-366.776"/>
		<path fill="none" stroke="#ffffff" stroke-miterlimit="10" d="M-0.981,1077.014C-1.893,971.228-2.72,865.235-0.788,759.458
			c1.385-75.835,8.763-151.316,6.614-227.237c-1.708-60.347-8.432-120.604-8.377-180.98c0.109-121.486-3.677-243.29-12.324-364.548"
			/>
		<path fill="none" stroke="#ffffff" stroke-miterlimit="10" d="M-6.48,1077.513c-0.947-105.959-2.357-212.104-0.708-318.06
			C-6,683.159,1.904,607.214,0.54,530.838C-2.7,349.502-6.271,168.535-18.55-12.539"/>
		<path fill="none" stroke="#ffffff" stroke-miterlimit="10" d="M-11.053,1077.934c-0.931-106.109-2.847-212.376-1.47-318.485
			c0.995-76.683,9.35-153.027,8.665-229.779c-0.537-60.185-2.363-120.47-0.916-180.65c2.893-120.283-9.304-240.886-16.809-360.91"/>
		<path fill="none" stroke="#ffffff" stroke-miterlimit="10" d="M-14.799,1078.283c-0.847-106.24-3.194-212.597-2.104-318.839
			c0.791-77.011,9.538-153.693,9.437-230.753c-0.079-60.163,0.171-120.375,2.058-180.515
			c3.761-119.891-12.041-239.886-18.644-359.529"/>
		<path fill="none" stroke="#ffffff" stroke-miterlimit="10" d="M-17.564,1078.546c-0.723-106.344-3.39-212.76-2.581-319.105
			c0.588-77.264,9.643-154.198,10.008-231.487c0.284-60.17,2.293-120.276,4.424-180.405c4.24-119.672-14.724-239.056-20.154-358.498
			"/>
		<path fill="none" stroke="#ffffff" stroke-miterlimit="10" d="M-19.269,1078.711c-0.509-106.415-3.412-212.86-2.881-319.276
			c0.386-77.435,9.655-154.52,10.353-231.953c0.542-60.19,3.953-120.188,6.106-180.326C-1.409,227.536-22.957,108.706-26.983-10.7"
			/>
		<path fill="none" stroke="#ffffff" stroke-miterlimit="10" d="M-27.115,3.543C7.255-0.228,41.202-6.71,75.737-9.574
			c26.058-2.161,53.57-4.996,79.584-1.36c25.163,3.517,49.15,13.525,73.772,19.446c77.446,18.624,138.025-37.759,211.912-48.418
			C514.338-50.485,588.191-8.261,659.389,1.81"/>
		<path fill="none" stroke="#ffffff" stroke-miterlimit="10" d="M-26.379,19.708c33.955-0.811,68.091-7.336,102.07-9.33
			c26.359-1.547,53.444-3.278,79.761-0.477c25.697,2.736,50.791,10.027,76.206,14.478c36.833,6.45,66.209,1.261,101.241-11.79
			c36.367-13.548,72.83-33.035,111.536-38.983c37.258-5.726,78.908,7.791,114.593,17.028c33.122,8.574,66.449,21.667,100.338,26.756
			"/>
		<path fill="none" stroke="#ffffff" stroke-miterlimit="10" d="M-25.235,38.127c32.873,1.694,67.083-4.38,100.008-5.501
			c54.28-1.848,106.229,3.663,160.102,9.24c37.496,3.882,67.137-0.648,102.635-14.048c36.629-13.827,73.257-33.398,112.206-39.855
			c36.242-6.008,77.299,8.588,111.748,18.363c32.351,9.179,64.715,22.729,97.886,28.568"/>
		<path fill="none" stroke="#ffffff" stroke-miterlimit="10" d="M-23.759,58.198c31.275,3.926,65.379-1.438,96.857-1.723
			c55.199-0.5,110.336,2.182,165.488,3.991c38.214,1.253,68.704-2.773,104.806-16.611C380.337,29.694,417.173,9.98,456.42,2.948
			c35.067-6.283,75.314,9.594,108.293,20.016c31.346,9.905,62.435,23.932,94.625,30.822"/>
		<path fill="none" stroke="#ffffff" stroke-miterlimit="10" d="M-22.054,79.209c29.865,5.024,62.687,1.411,92.89,1.9
			c57.454,0.932,114.301,0.313,171.763-1.52c38.92-1.241,70.733-4.978,107.517-19.295c37.275-14.509,74.338-34.38,113.895-42.002
			c33.853-6.523,73.061,10.706,104.463,21.837c30.175,10.697,59.828,25.268,90.857,33.302"/>
		<path fill="none" stroke="#ffffff" stroke-miterlimit="10" d="M-20.121,101.569c27.605,6.954,59.875,4.254,88.147,5.464
			c60.715,2.599,118.371-1.875,178.91-7.363c39.632-3.593,73.14-7.242,110.687-22.069c37.598-14.848,74.901-34.863,114.756-43.055
			c32.646-6.71,70.532,11.874,100.281,23.778c28.843,11.542,56.938,26.78,86.663,35.921"/>
		<path fill="none" stroke="#ffffff" stroke-miterlimit="10" d="M-18.059,124.583c24.932,8.806,56.809,7.03,82.887,8.869
			c26.214,1.849,52.85,5.06,79.077,2.494c36.048-3.525,71.663-10.742,107.503-15.813c40.342-5.708,75.72-9.436,114.09-24.751
			c37.884-15.122,75.4-35.245,115.508-43.928c31.548-6.83,67.847,12.988,95.979,25.688c27.435,12.384,53.935,28.392,82.334,38.466"
			/>
		<path fill="none" stroke="#ffffff" stroke-miterlimit="10" d="M-15.931,147.925c21.88,10.496,53.623,9.729,77.296,12.078
			c26.084,2.589,52.599,6.199,78.726,2.868c38.984-4.971,77.202-15.006,115.81-22.135c41.034-7.577,78.317-11.461,117.543-27.208
			c38.102-15.296,75.78-35.439,116.064-44.494c30.598-6.877,65.111,13.962,91.715,27.447c26.006,13.183,50.939,30.021,78.09,40.77"
			/>
		<path fill="none" stroke="#ffffff" stroke-miterlimit="10" d="M-13.843,170.854c19.229,12.165,51.871,12.511,73.726,15.271
			c21.922,2.769,44.958,6.617,67.008,4.216c42.124-4.587,83.334-18.001,124.507-27.454c42.119-9.67,83.058-12.988,123.654-28.905
			c39.312-15.413,77.603-35.667,118.692-46.106c31.512-8.006,62.993,12.142,89.787,27.14c25.18,14.095,49.132,32.238,75.775,43.496"
			/>
		<path fill="none" stroke="#ffffff" stroke-miterlimit="10" d="M-11.785,193.842c17.093,12.868,47.561,14.861,67.949,18.037
			c21.573,3.359,44.334,7.371,66.113,4.713c45.088-5.503,88.953-21.72,132.736-33.134c42.888-11.181,85.624-14.807,127.219-30.972
			c39.298-15.272,77.587-35.27,118.609-45.682c56.412-14.318,110.458,52.417,158.454,73.059"/>
		<path fill="none" stroke="#ffffff" stroke-miterlimit="10" d="M-9.864,216.157c13.801,13.837,44.248,17.132,62.416,20.502
			c21.247,3.941,43.697,7.972,65.247,5.152c47.908-6.268,94.293-25.16,140.521-38.396c43.537-12.465,87.769-16.235,130.283-32.428
			c39.126-14.902,77.275-34.46,118.065-44.579c56.393-13.99,104.866,54.488,152.61,74.249"/>
		<path fill="none" stroke="#ffffff" stroke-miterlimit="10" d="M-8.172,237.104C2.753,251.537,32.876,256.2,49.227,259.7
			c20.94,4.481,43.11,8.414,64.46,5.532c50.441-6.81,99.103-28.205,147.483-43.053c44.011-13.507,89.322-17.188,132.611-33.131
			c38.775-14.28,76.634-33.188,117.004-42.714c56.988-13.446,99.877,55.923,148.473,73.936"/>
		<path fill="none" stroke="#ffffff" stroke-miterlimit="10" d="M-6.717,257.094c8.751,14.759,37.825,20.709,52.914,24.351
			c76.007,18.343,146.04-18.175,217.366-41.278c44.29-14.346,90.186-17.645,134.091-32.978
			c38.206-13.343,75.584-31.325,115.299-39.895c58.047-12.524,95.854,56.561,146.276,71.824"/>
		<path fill="none" stroke="#ffffff" stroke-miterlimit="10" d="M-5.596,275.413c8.809,14.868,33.791,21.598,49.246,25.697
			c76.951,20.41,150.06-20.156,221.694-44.33c44.357-14.969,90.158-17.518,134.48-31.809
			c37.391-12.056,74.084-28.826,112.876-36.023c59.334-11.009,93.571,56.205,146.492,67.627"/>
		<path fill="none" stroke="#ffffff" stroke-miterlimit="10" d="M-4.884,291.463c9.199,15.279,32.252,22.675,48.322,27.058
			c80.856,22.05,159.816-26.22,234.66-51.007c38.479-12.743,77.547-13.273,116.256-23.923c37.27-10.254,73.582-25.819,111.861-32.12
			c62.689-10.319,95.853,53.765,152.931,60.628"/>
		<path fill="none" stroke="#ffffff" stroke-miterlimit="10" d="M-4.625,305.476c10.731,14.795,29.867,22.7,46.823,27.5
			c81.389,23.039,161.288-27.105,236.256-52.424c38.196-12.9,75.405-11.846,114.031-20.602
			c35.852-8.127,71.014-21.768,107.717-25.747c61.671-6.687,100.921,46.093,158.884,51.752"/>
		<path fill="none" stroke="#ffffff" stroke-miterlimit="10" d="M-4.703,318.028c8.381,15.278,31.807,23.221,47.464,27.607
			c80.518,22.561,160.083-26.873,234.263-51.994c37.922-12.842,75.305-13.02,113.755-21.818
			c35.295-8.076,70.043-20.985,106.169-25.004c61.924-6.888,103.706,45.491,162.175,51.992"/>
		<path fill="none" stroke="#ffffff" stroke-miterlimit="10" d="M-4.89,329.982c6.675,14.868,33.016,23.189,47.507,27.345
			c76.32,21.885,151.067-21.788,221.277-46.948c25.088-8.99,49.981-17.355,76.665-19.549c18.234-1.499,35.759-4.293,53.61-8.413
			c34.238-7.902,68.442-19.643,103.615-22.658c60.422-5.181,103.885,45.093,161.464,51.856"/>
		<path fill="none" stroke="#ffffff" stroke-miterlimit="10" d="M-5.182,341.804c6.568,14.967,35.628,23.554,50.294,27.658
			c75.357,21.09,148.005-21.207,217.285-46.389c43.111-15.67,85.284-18.874,129.542-28.357c34.398-7.37,68.871-18.02,104.102-20.604
			c60.55-4.44,105.501,43.737,163.419,50.689"/>
		<path fill="none" stroke="#ffffff" stroke-miterlimit="10" d="M-5.56,353.327c5.381,14.991,40.184,24.294,53.993,28.046
			c74.313,20.191,144.233-20.402,212.488-45.71c42.874-15.897,84.344-19.913,128.687-28.429
			c34.827-6.688,69.844-16.094,105.384-18.041c60.563-3.318,106.59,42.042,164.752,48.934"/>
		<path fill="none" stroke="#ffffff" stroke-miterlimit="10" d="M-6.002,364.404c7.45,15.522,42.962,24.426,58.405,28.488
			c73.209,19.259,139.995-19.403,207.158-44.911c42.685-16.211,83.244-20.827,127.746-28.229
			c35.466-5.898,71.22-13.953,107.269-15.125c60.374-1.963,107.267,40.075,165.503,46.704"/>
		<path fill="none" stroke="#ffffff" stroke-miterlimit="10" d="M-6.513,375.474c10.535,16.116,45.775,24.459,63.574,28.979
			c72.02,18.288,135.287-18.171,201.275-43.939c42.542-16.613,81.97-21.609,126.706-27.783
			c36.289-5.009,72.938-11.595,109.67-11.864c59.922-0.44,107.664,37.83,165.761,43.999"/>
		<path fill="none" stroke="#ffffff" stroke-miterlimit="10" d="M-7.07,386.382c14.2,16.55,48.745,24.462,69.307,29.494
			c20.59,5.039,43,9.332,64.089,5.571c45.358-8.088,88.617-31.294,131.016-48.356c42.435-17.076,80.58-22.229,125.603-27.143
			c37.233-4.063,74.87-9.117,112.404-8.413c59.164,1.11,107.863,35.391,165.556,40.935"/>
		<path fill="none" stroke="#ffffff" stroke-miterlimit="10" d="M-7.66,397.174c15.975,17.189,53.532,24.846,75.488,30.019
			c20.791,4.898,43.723,9.601,64.958,5.551c42.925-8.186,83.809-30.356,123.857-46.975c19.574-8.122,40.272-17.913,61.378-21.353
			c20.51-3.343,42.354-3.33,63.082-5.007c38.249-3.094,76.904-6.57,115.313-4.871c58.118,2.57,107.92,32.796,164.948,37.586"/>
		<path fill="none" stroke="#ffffff" stroke-miterlimit="10" d="M-8.257,407.716c20.194,17.252,56.661,24.798,81.888,30.523
			c20.993,4.765,44.534,9.879,65.919,5.552c40.507-8.197,79.05-29.305,116.769-45.42c18.48-7.896,38.186-17.768,58.15-21.334
			c20.909-3.734,43.966-2.983,65.168-4.146c39.262-2.152,78.901-4.079,118.188-1.411c56.873,3.862,107.841,30.088,164.006,34.099"/>
		<path fill="none" stroke="#ffffff" stroke-miterlimit="10" d="M-8.873,418.425c24.157,17.01,60.254,24.813,88.616,31.007
			c21.207,4.632,45.444,10.161,66.992,5.574c38.077-8.106,74.298-28.081,109.686-43.612c17.428-7.648,36.098-17.492,54.94-21.188
			c21.24-4.165,45.613-2.678,67.21-3.341c40.255-1.236,80.829-1.613,120.981,1.989c29.229,2.623,57.252,6.544,85.568,14.378
			c25.801,7.138,50.287,14.506,77.193,16.042"/>
		<path fill="none" stroke="#ffffff" stroke-miterlimit="10" d="M-9.479,429.155c27.701,16.619,64.192,24.877,95.441,31.451
			c21.658,4.557,46.172,10.1,68.143,5.609c35.657-7.288,69.991-26.786,102.926-41.552c16.468-7.383,34.122-17.081,51.911-20.897
			c21.488-4.61,47.193-2.451,69.093-2.662c41.154-0.396,82.542,0.715,123.48,5.166c28.854,3.138,56.971,6.178,85.229,13.055
			c25.43,6.188,49.755,12.51,76.048,13.636"/>
		<path fill="none" stroke="#ffffff" stroke-miterlimit="10" d="M-10.054,439.771c29.997,16.837,68.805,25.065,102.135,31.821
			c21.924,4.443,47.127,10.301,69.33,5.662c33.526-7.005,65.84-25.218,96.78-39.252c15.645-7.097,32.357-16.549,49.211-20.463
			c21.675-5.034,48.574-2.345,70.703-2.172c41.897,0.328,83.912,2.804,125.5,7.961c28.477,3.531,56.635,5.813,84.779,11.731
			c25.036,5.265,49.17,10.572,74.857,11.319"/>
		<path fill="none" stroke="#ffffff" stroke-miterlimit="10" d="M-10.604,450.692c33.206,16.265,72.785,25.084,108.814,32.119
			c22.234,4.342,48.088,10.424,70.581,5.724c31.574-6.598,62.069-23.399,91.22-36.611c14.65-6.64,30.984-16.526,46.854-19.852
			c22.524-4.72,49.146-2.411,72.015-1.912c42.452,0.927,84.895,4.643,126.96,10.365c28.096,3.822,56.22,5.439,84.2,10.391
			c24.624,4.357,48.548,8.661,73.637,9.063"/>
		<path fill="none" stroke="#ffffff" stroke-miterlimit="10" d="M-11.105,461.774c36.045,15.717,76.772,25.082,115.242,32.32
			c23.065,4.34,48.505,9.737,71.859,5.795c29.682-5.011,59.316-21.538,86.548-33.643c14.163-6.296,29.767-15.698,44.994-19.058
			c22.734-5.016,49.81-2.682,72.907-1.952c42.75,1.351,85.349,6.15,127.658,12.234c50.552,7.27,104.84,15.798,155.967,16.034"/>
		<path fill="none" stroke="#ffffff" stroke-miterlimit="10" d="M-11.539,472.871c38.585,15.156,80.536,24.988,121.207,32.409
			c23.472,4.282,49.347,9.61,73.123,5.865c28.406-4.475,56.797-19.221,83.008-30.38c13.917-5.925,28.951-14.692,43.753-18.086
			c22.899-5.249,50.011-3.193,73.293-2.339c42.738,1.569,85.187,7.229,127.457,13.436c49.812,7.313,103.687,13.127,154.11,12.93"/>
		<path fill="none" stroke="#ffffff" stroke-miterlimit="10" d="M-11.904,484.415c39.899,14.332,82.211,24.333,123.866,31.842
			c27.051,4.876,56.063,10.522,83.348,5.212c27.564-5.365,54.474-17.424,80.448-27.73c39.375-15.624,74.516-19.484,117.199-17.438
			c41.378,1.984,82.284,8.342,123.241,14.166c48.034,6.831,99.915,10.021,148.499,9.555"/>
		<path fill="none" stroke="#ffffff" stroke-miterlimit="10" d="M-12.18,496.265c41.825,13.824,85.413,24.118,128.776,31.65
			c27.598,4.794,56.788,9.973,84.703,5.531c27.096-4.311,53.731-14.494,79.485-23.607c39.193-13.87,74.526-19.423,116.542-17.604
			c40.57,1.756,80.563,8.485,120.753,13.773c47.628,6.267,98.751,8.158,146.833,7.19"/>
		<path fill="none" stroke="#ffffff" stroke-miterlimit="10" d="M-12.351,508.249c43.437,13.295,88.128,23.812,132.918,31.304
			c28.229,4.722,57.512,9.203,86.122,5.871c27.151-3.162,54.019-11.313,80.111-19.145c38.977-11.7,74.653-19.438,115.878-18.126
			c39.314,1.252,77.981,8.062,116.981,12.463c47.683,5.381,97.401,5.98,145.386,5.375"/>
		<path fill="none" stroke="#ffffff" stroke-miterlimit="10" d="M-12.409,520.838c44.735,12.773,90.367,23.368,136.302,30.76
			c58.911,9.479,112.115,5.649,170.061-8.234c38.687-9.27,74.78-19.426,115.093-18.891c37.561,0.499,74.477,7.092,111.813,10.205
			c47.788,3.984,96.294,4.246,144.229,4.157"/>
		<path fill="none" stroke="#ffffff" stroke-miterlimit="10" d="M-12.527,533.825c45.477,12.902,92.332,22.631,139.031,29.793
			c59.191,9.077,114.279,5.965,172.826-6.463c38.163-8.101,73.693-18.214,113.214-17.718c36.247,0.455,71.989,6.602,108.12,8.523
			c47.844,2.545,96.872,4.591,144.793,3.875"/>
		<path fill="none" stroke="#ffffff" stroke-miterlimit="10" d="M-12.837,547.157c103.994,28.199,209.658,43.665,316.409,24.223
			c37.538-6.837,72.588-16.908,111.199-16.641c35.037,0.242,69.768,5.748,104.767,6.303c48.707,0.771,98.196,5.296,146.839,4.153"/>
		<path fill="none" stroke="#ffffff" stroke-miterlimit="10" d="M-13.301,560.551c104.728,26.347,212.612,41.238,320.043,25.166
			c36.839-5.512,71.471-15.544,109.103-15.662c33.961-0.106,67.847,4.591,101.8,3.675c26.186-0.707,51.493-2.203,77.699-0.003
			c24.128,2.026,48.132,5.575,72.41,4.911"/>
		<path fill="none" stroke="#ffffff" stroke-miterlimit="10" d="M-13.914,574.427c105.515,23.852,214.91,38.462,322.949,26.181
			c36.081-4.102,70.302-14.087,106.896-14.732c32.992-0.582,66.15,3.108,99.101,0.62c26.932-2.033,52.203-3.622,79.204-0.767
			c25.08,2.652,49.997,7.55,75.324,6.87"/>
		<path fill="none" stroke="#ffffff" stroke-miterlimit="10" d="M-14.64,588.511c106.182,21.219,216.716,35.357,325.131,27.229
			c35.307-2.647,69.083-12.574,104.641-13.859c32.163-1.162,64.701,1.363,96.711-2.732c27.769-3.553,53.2-5.106,81.135-1.4
			c26.141,3.469,52.221,9.667,78.735,9.055"/>
		<path fill="none" stroke="#ffffff" stroke-miterlimit="10" d="M-15.441,602.507c105.626,17.632,213.341,30.299,320.625,28.427
			c33.842-0.591,66.048-10.167,99.686-12.632c31.188-2.285,62.696-1.067,93.734-5.303c32.984-4.501,61.018-8.444,94.434-3.195
			c26.851,4.218,53.685,11.607,81.05,11.158"/>
		<path fill="none" stroke="#ffffff" stroke-miterlimit="10" d="M-16.319,616.86c106.637,13.994,214.121,26.123,321.686,29.228
			c33.35,0.963,64.631-8.251,97.59-11.376c30.529-2.895,61.484-2.928,91.692-8.676c34.292-6.525,62.015-10.342,97.013-4.114
			c28.406,5.055,56.061,12.718,85.038,13.615"/>
		<path fill="none" stroke="#ffffff" stroke-miterlimit="10" d="M-17.233,631.281c50.763,4.902,101.269,11.844,152.143,15.819
			c30.908,2.416,61.914,2.191,92.784,4.387c25.932,1.844,51.4,7.787,77.326,9.807c32.906,2.563,63.117-6.296,95.5-10.125
			c30.002-3.548,60.471-4.901,89.92-12.113c35.586-8.715,63.158-12.205,99.807-4.982c29.783,5.869,58.711,14.837,89.198,16.17"/>
		<path fill="none" stroke="#ffffff" stroke-miterlimit="10" d="M-18.145,645.473c54.61,3.452,108.968,10.761,163.625,14.132
			c29.693,1.832,60.045,0.439,89.543,4.102c25.104,3.116,49.472,10.694,74.688,13.176c31.74,3.124,61.32-5.876,92.531-10.174
			c29.2-4.021,58.787-6.961,87.044-15.809c35.842-11.223,64.021-12.597,101.159-4.494c30.597,6.675,60.306,16.634,91.75,18.375"/>
		<path fill="none" stroke="#ffffff" stroke-miterlimit="10" d="M-19.057,659.888c55.097,1.856,110.149,8.922,165.244,11.713
			c29.546,1.497,60.293-0.635,89.521,3.957c24.599,3.864,48.066,13.089,72.732,16.719c31.267,4.601,59.939-4.261,90.607-9.28
			c28.97-4.741,58.183-9.111,85.886-19.226c36.884-13.466,65.568-14.131,104.181-5.081c31.952,7.488,62.931,18.71,95.867,20.938"/>
		<path fill="none" stroke="#ffffff" stroke-miterlimit="10" d="M-19.931,674.229c55.458,0.362,111.195,7.152,166.639,9.388
			c29.338,1.183,60.531-1.664,89.42,3.806c24.133,4.569,46.666,15.384,70.783,20.113c30.788,6.038,58.646-2.685,88.825-8.373
			c28.842-5.437,57.714-11.216,84.955-22.48c37.847-15.65,67.092-15.632,107.14-5.658c33.262,8.283,65.473,20.749,99.853,23.461"/>
		<path fill="none" stroke="#ffffff" stroke-miterlimit="10" d="M-20.727,688.211c55.727-0.829,112.043,5.52,167.768,7.237
			c29.083,0.896,60.752-2.595,89.259,3.65c23.734,5.199,45.343,17.496,68.944,23.24c30.287,7.371,57.512-1.186,87.244-7.445
			c28.799-6.063,57.375-13.18,84.25-25.452c17.318-7.908,30.853-15.198,50.386-15.524c20.114-0.336,40.195,4.219,59.522,9.285
			c34.47,9.035,67.822,22.686,103.538,25.864"/>
		<path fill="none" stroke="#ffffff" stroke-miterlimit="10" d="M-21.448,702.272c54.8-1.708,110.417,3.897,165.235,5.162
			c28.739,0.663,60.642-3.187,88.848,2.648c23.103,4.779,43.605,18.197,65.896,25.46c29.739,9.69,54.033,3.34,83.687-3.269
			c32.414-7.224,64.258-16.184,93.973-31.335c38.226-19.491,70.25-16.165,111.215-4.774c34.932,9.713,68.778,24.166,105.104,27.671"
			/>
		<path fill="none" stroke="#ffffff" stroke-miterlimit="10" d="M-22.05,716.127c55.145-1.264,110.668,2.591,165.825,3.431
			c28.46,0.434,60.804-3.878,88.665,2.382c22.896,5.145,42.652,19.802,64.463,27.898c29.115,10.809,53.204,4.864,82.524-1.988
			c32.541-7.605,64.108-17.89,93.594-33.85c39-21.11,71.31-17.477,113.49-5.284c35.874,10.369,70.625,25.917,108.02,29.789"/>
		<path fill="none" stroke="#ffffff" stroke-miterlimit="10" d="M-22.514,729.721c55.271-1.334,110.829,1.51,166.115,1.992
			c28.205,0.246,60.87-4.383,88.438,2.14c22.794,5.393,41.911,21.13,63.335,29.925c53.067,21.784,128.331-10.143,175.063-36.563
			c17.497-9.893,30.689-17.77,51.394-17.844c21.69-0.078,43.344,5.8,63.946,11.959c36.637,10.953,72.127,27.546,110.409,31.707"/>
		<path fill="none" stroke="#ffffff" stroke-miterlimit="10" d="M-22.804,742.789c55.321-0.94,110.76,0.69,166.088,0.902
			c27.989,0.106,60.831-4.68,88.18,1.924c22.803,5.506,41.433,22.132,62.598,31.462c53.206,23.456,128.006-9.645,174.518-36.701
			c17.532-10.199,30.688-18.834,51.636-19.037c22.058-0.214,44.146,6.03,65.023,12.454c37.175,11.438,73.205,29.003,112.145,33.345"
			/>
		<path fill="none" stroke="#ffffff" stroke-miterlimit="10" d="M-22.908,755.735c55.239,0.104,110.478,0.154,165.716,0.186
			c27.836,0.016,60.665-4.749,87.895,1.744c22.931,5.469,41.257,22.762,62.313,32.453c53.52,24.633,127.894-8.678,174.508-36.168
			c17.508-10.325,30.644-19.771,51.686-20.142c22.294-0.393,44.709,6.162,65.741,12.791c37.464,11.809,73.815,30.225,113.148,34.671
			"/>
		<path fill="none" stroke="#ffffff" stroke-miterlimit="10" d="M-22.882,769.201c54.936,0.125,109.874-0.174,164.81-0.254
			c27.844-0.04,60.485-4.718,87.714,1.882c22.818,5.53,41.472,22.122,62.556,31.649c54.108,24.451,127.453-7.482,175.112-34.759
			c17.786-10.18,31.021-18.525,52.145-18.607c22.508-0.088,45.058,6.109,66.432,12.498c37.363,11.168,73.616,28.452,112.466,33.7"/>
		<path fill="none" stroke="#ffffff" stroke-miterlimit="10" d="M-22.813,783.622c54.595,0.011,109.194-0.561,163.789-0.77
			c27.882-0.107,60.215-4.646,87.503,1.881c22.715,5.434,41.732,21.146,62.875,30.354c54.609,23.78,126.855-5.87,175.6-32.627
			c18.021-9.893,31.448-17.279,52.546-17.206c22.681,0.078,45.366,5.812,67.062,11.849c37.218,10.356,73.361,26.326,111.696,32.068"
			/>
		<path fill="none" stroke="#ffffff" stroke-miterlimit="10" d="M-22.704,799.357c54.213-0.232,108.427-1.011,162.64-1.369
			c27.937-0.185,59.871-4.531,87.265,1.756c22.615,5.19,42.044,19.845,63.268,28.58c55.058,22.661,126.099-3.874,175.991-29.783
			c40.759-21.166,76.692-16.116,120.568-5.013c37.016,9.367,73.032,23.853,110.824,29.792"/>
		<path fill="none" stroke="#ffffff" stroke-miterlimit="10" d="M-22.562,816.023c53.801-0.606,107.597-1.52,161.399-2.034
			c28.005-0.268,59.47-4.375,87.005,1.528c22.53,4.83,42.391,18.269,63.721,26.408c55.453,21.16,125.233-1.626,176.293-26.36
			c76.245-36.936,154.024,12.032,231.319,21.939"/>
		<path fill="none" stroke="#ffffff" stroke-miterlimit="10" d="M-22.393,833.169c53.367-1.053,106.735-2.048,160.107-2.735
			c28.079-0.361,59.038-4.179,86.733,1.217c22.463,4.376,42.759,16.485,64.212,23.938c55.815,19.388,124.296,0.746,176.517-22.517
			c75.53-33.646,154.493,8.529,231.101,18.393"/>
		<path fill="none" stroke="#ffffff" stroke-miterlimit="10" d="M-22.2,851.254c52.903-1.531,105.826-2.624,158.743-3.488
			c28.152-0.46,58.582-3.935,86.446,0.828c22.416,3.831,43.158,14.48,64.753,21.147c56.165,17.34,123.287,3.241,176.669-18.224
			c75.024-30.167,154.602,4.756,230.757,14.153"/>
		<path fill="none" stroke="#ffffff" stroke-miterlimit="10" d="M-21.988,869.839c52.416-2.113,104.9-3.219,157.346-4.264
			c28.219-0.563,58.13-3.66,86.154,0.38c22.395,3.229,43.565,12.321,65.318,18.136c56.52,15.108,122.243,5.741,176.757-13.629
			c74.769-26.566,154.362,0.895,230.314,9.399"/>
		<path fill="none" stroke="#ffffff" stroke-miterlimit="10" d="M-21.766,888.455c51.917-2.73,103.988-3.819,155.958-5.046
			c28.27-0.667,57.708-3.348,85.864-0.091c22.403,2.592,43.97,10.08,65.894,15.012c56.893,12.797,121.214,8.14,176.796-8.914
			c74.746-22.934,153.845-2.828,229.795,4.366"/>
		<path fill="none" stroke="#ffffff" stroke-miterlimit="10" d="M-21.532,907.608c51.408-3.3,103.066-4.422,154.553-5.837
			c28.301-0.777,57.322-3.011,85.575-0.597c22.443,1.917,44.375,7.729,66.484,11.73c57.322,10.376,120.183,10.464,176.796-4.007
			c74.872-19.138,153.156-6.529,229.196-0.992"/>
		<path fill="none" stroke="#ffffff" stroke-miterlimit="10" d="M-21.296,926.834c103.533-7.943,207.742-12.225,310.675,1.387
			c55.119,7.288,113.551,11.434,168.459,0.833c76.654-14.798,154.04-10.69,231.727-7.082"/>
		<path fill="none" stroke="#ffffff" stroke-miterlimit="10" d="M-21.066,945.663c102.46-9.06,207.285-12.975,309.715-3.317
			c55.632,5.245,112.647,13.529,168.382,5.635c76.716-10.866,153.53-13.508,231.047-12.257"/>
		<path fill="none" stroke="#ffffff" stroke-miterlimit="10" d="M-20.84,964.607c101.604-10.097,206.823-13.813,308.8-7.961
			c56.116,3.22,111.914,15.422,168.288,10.346c76.758-6.912,153.131-16.043,230.35-17.366"/>
		<path fill="none" stroke="#ffffff" stroke-miterlimit="10" d="M-20.627,983.2c100.985-11.031,206.364-14.701,307.957-12.373
			c56.512,1.295,111.428,17.062,168.197,14.786c76.748-3.076,152.892-18.296,229.666-22.185"/>
		<path fill="none" stroke="#ffffff" stroke-miterlimit="10" d="M-20.431,1001.29c50.111-5.813,101.155-7.294,151.521-9.532
			c51.713-2.298,103.947-6.5,155.678-6.928c56.771-0.47,111.223,18.448,168.112,18.866c76.725,0.563,152.787-20.215,229.019-26.584"
			/>
		<path fill="none" stroke="#ffffff" stroke-miterlimit="10" d="M-20.263,1018.442c49.785-6.002,100.523-7.72,150.582-10.08
			c52.01-2.453,104.04-8.153,155.972-9.985c56.868-2.006,111.3,19.562,168.049,22.416c76.794,3.862,152.699-21.856,228.438-30.366"
			/>
		<path fill="none" stroke="#ffffff" stroke-miterlimit="10" d="M-20.118,1035.116c49.546-5.997,99.951-8.085,149.77-10.552
			c28.149-1.394,56.652-0.676,84.679-3.599c23.927-2.495,47.499-7.675,71.559-9.076c56.801-3.309,111.635,20.433,168.016,25.481
			c77.118,6.906,152.441-23.403,227.917-33.543"/>
		<path fill="none" stroke="#ffffff" stroke-miterlimit="10" d="M-20.007,1050.864c49.398-5.819,99.475-8.374,149.126-10.926
			c28.082-1.443,56.693-0.421,84.612-3.732c24.084-2.856,47.613-9.289,71.852-11.133c56.578-4.303,112.169,21.04,168.021,27.893
			c77.896,9.558,151.802-24.948,227.489-35.9"/>
		<path fill="none" stroke="#ffffff" stroke-miterlimit="10" d="M-19.937,1065.293c49.349-5.422,99.118-8.575,148.681-11.186
			c28.029-1.477,56.75-0.187,84.586-3.717c24.217-3.071,47.669-10.58,72.05-12.726c56.222-4.948,112.836,21.317,168.072,29.531
			c79.222,11.781,150.697-26.736,227.187-37.302"/>
	</g>
</g>
</svg>
